…
library(tidyverse)
library(rvest)

nature_articles <- function(v, n) {
  read_html(paste("http://www.nature.com/nature/journal/v", v, "/n", n, "/index.html", sep="")) %>% 
    html_nodes("#research") %>% 
    html_nodes("hgroup") %>% 
    html_text() %>% 
    as_tibble %>%
    return()
}

nature_articles(v = 543, n = 7645) 

## # A tibble: 28 × 1
##                                                                      value
##                                                                      <chr>
## 1                          Astrophysics: Distant galaxies lack dark matter
## 2                        Biomedicine: An improved gel for detached retinas
## 3                     Physiology: Bone-derived hormone suppresses appetite
## 4                                                       50 & 100 Years Ago
## 5        Biogeochemistry: A plan for efficient use of nitrogen fertilizers
## 6                                           Ecology: Coral crisis captured
## 7                                           Cell biology: Sort and destroy
## 8                               Applied physics: 3D imaging for microchips
## 9            Molecular biology: A hidden competitive advantage of disorder
## 10 Mineral supply for sustainable development requires resource governance
## # ... with 18 more rows
…
issues <- issues[seq_len(length(issues)-2)]

The other one is the fact it is a character vector, not a data frame. If you look closely, very closely, you will figure out the 1st element is a date, then the issue, volume, finally the page numbers. This last one we do not need, so we will just discard, but the others still in a nice order we can use to arrange them into a tibble. Also there are some supplementary pages (SX-SY), those are generally replicated lines without the page numbers, so we will just extract the unique() lines. Then we need to filter special issuse, which happened just a few times, but always got the S1 issue label.

n_issues <- tibble(
  date = parse_date(issues[c(T,F,F,F)], format = "%d %B %Y"),
  v = parse_number(issues[c(F,T,F,F)]),
  n = parse_number(issues[c(F,F,T,F)])
) %>% 
  unique() %>%
  filter(n != 1)

n_issues

## # A tibble: 256 × 3
##          date     v     n
##        <date> <dbl> <dbl>
## 1  2016-12-22   540  7634
## 2  2016-12-15   540  7633
## 3  2016-12-08   540  7632
## 4  2016-12-01   540  7631
## 5  2016-11-24   539  7630
## 6  2016-11-17   539  7629
## 7  2016-11-10   539  7628
## 8  2016-11-03   539  7627
## 9  2016-10-27   538  7626
## 10 2016-10-20   538  7625
## # ... with 246 more rows
…
Now we have the necessary data, so let’s work on it. First we have to unnest() our data frame to have one title per line (or work with an already unnested data). Then tear them down to words and delete all the punctuation and case issues. For this the tidytext package’s unnest_token() function comes really handy.

Oh. And let me work from here with the data from 1998-2017.

library(tidytext)

all_title %>%
  unnest_tokens(word, value) -> all_words

Now we can count the words and see the most frequent ones are …

all_words %>% 
  count(word, sort = TRUE) 

## # A tibble: 28,943 × 2
##     word    nn
##    <chr> <int>
## 1     of 13961
## 2    the 12917
## 3     in 10037
## 4      a  7252
## 5    and  6685
## 6     to  4629
## 7    for  4257
## 8     by  2676
## 9     on  2329
## 10  from  1825
## # ... with 28,933 more rows

… not those we want. “of”, “the”, “in” and so on. These are called “stop words”. To remove them we can use the tidytext:stop_words data and dplyr::anti_join().

all_words %>% 
  anti_join(stop_words, by = "word") %>% 
  count(word, sort = TRUE) 

## # A tibble: 28,358 × 2
##         word    nn
##        <chr> <int>
## 1    science  1735
## 2       cell  1424
## 3    biology  1192
## 4      cells   985
## 5      human   953
## 6   research   878
## 7    protein   804
## 8        ago   758
## 9  structure   739
## 10       dna   726
## # ... with 28,348 more rows

Now we are getting very close what we need (or now we think we need). Here already in the first two lines you can see the problem. “cell” and “cells” are independent entries. If we want to remove every modifications from a word, that is called “steming”, since we will get the “stem” of the word. In the “cell”, “cells” case of course “cell”. There are several methods and packages, like SnowballC, hunspell or tm. Here I am using SnowballC::wordStem().

library(SnowballC)

all_words %>% 
  anti_join(stop_words, by = "word") %>% 
  mutate(word = word %>% SnowballC::wordStem()) %>%
  count(word, sort = TRUE) -> word_count

word_count

## # A tibble: 20,363 × 2
##        word    nn
##       <chr> <int>
## 1      cell  2409
## 2    scienc  1794
## 3  structur  1285
## 4   biologi  1192
## 5  research  1065
## 6     human  1064
## 7   protein  1029
## 8     genom   952
## 9      gene   850
## 10    activ   822
## # ... with 20,353 more rows
…
