How to give title to your top journal science article
…
library(tidyverse)
library(rvest)

nature_articles <- function(v, n) {
  read_html(paste("http://www.nature.com/nature/journal/v", v, "/n", n, "/index.html", sep="")) %>% 
    html_nodes("#research") %>% 
    html_nodes("hgroup") %>% 
    html_text() %>% 
    as_tibble %>%
    return()
}

nature_articles(v = 543, n = 7645) 

## # A tibble: 28 x 1
##                                                                      value
##                                                                      <chr>
##  1                         Astrophysics: Distant galaxies lack dark matter
##  2                       Biomedicine: An improved gel for detached retinas
##  3                    Physiology: Bone-derived hormone suppresses appetite
##  4                                                      50 & 100 Years Ago
##  5       Biogeochemistry: A plan for efficient use of nitrogen fertilizers
##  6                                          Ecology: Coral crisis captured
##  7                                          Cell biology: Sort and destroy
##  8                              Applied physics: 3D imaging for microchips
##  9           Molecular biology: A hidden competitive advantage of disorder
## 10 Mineral supply for sustainable development requires resource governance
## # ... with 18 more rows
…
issues <- issues[seq_len(length(issues)-2)]

The other one is the fact it is a character vector, not a data frame. If you look closely, very closely, you will figure out the 1st element is a date, then the issue, volume, finally the page numbers. This last one we do not need, so we will just discard, but the others still in a nice order we can use to arrange them into a tibble. Also there are some supplementary pages (SX-SY), those are generally replicated lines without the page numbers, so we will just extract the unique() lines. Then we need to filter special issues, which happened just a few times, but always got the S1 issue label.

n_issues <- tibble(
  date = parse_date(issues[c(T,F,F,F)], format = "%d %B %Y"),
  v = parse_number(issues[c(F,T,F,F)]),
  n = parse_number(issues[c(F,F,T,F)])
) %>% 
  unique() %>%
  filter(n != 1)

n_issues

## # A tibble: 256 x 3
##          date     v     n
##        <date> <dbl> <dbl>
##  1 2016-12-22   540  7634
##  2 2016-12-15   540  7633
##  3 2016-12-08   540  7632
##  4 2016-12-01   540  7631
##  5 2016-11-24   539  7630
##  6 2016-11-17   539  7629
##  7 2016-11-10   539  7628
##  8 2016-11-03   539  7627
##  9 2016-10-27   538  7626
## 10 2016-10-20   538  7625
## # ... with 246 more rows
Now we have a data frame with one issue per line. To extract all the titles we will preserve this format and will use the magical list columns in tibble. To create the new column just use casually the mutate() function from the dplyr pkg. To perform our nature_articles() function on every line, we will use the map2() function from the purrr package, since we have two inputs to this function.

n_issues %>% 
  mutate(
    titles = map2(
      v, 
      n, 
      nature_articles
      )
    ) -> all_title

all_title %>%
  filter(lubridate::year(date) > 2011)

## # A tibble: 6,498 x 4
##          date     v     n
##        <date> <dbl> <dbl>
##  1 2012-12-20   492  7429
##  2 2012-12-20   492  7429
##  3 2012-12-20   492  7429
##  4 2012-12-20   492  7429
##  5 2012-12-20   492  7429
##  6 2012-12-20   492  7429
##  7 2012-12-20   492  7429
##  8 2012-12-20   492  7429
##  9 2012-12-20   492  7429
## 10 2012-12-20   492  7429
## # ... with 6,488 more rows, and 1 more variables: value <chr>
…
Now we have the necessary data, so lets work on it. First we have to unnest() our data frame to have one title per line (or work with an already unnested data). Then tear them down to words and delete all the punctuation and case issues. For this the tidytext packages unnest_token() function comes really handy.

Oh. And let me work from here with the data from 1998-2017.

library(tidytext)

all_title %>%
  unnest_tokens(word, value) -> all_words

Now we can count the words and see the most frequent ones are 

all_words %>% 
  count(word, sort = TRUE) 

## # A tibble: 28,943 x 2
##     word    nn
##    <chr> <int>
##  1    of 13961
##  2   the 12917
##  3    in 10037
##  4     a  7252
##  5   and  6685
##  6    to  4629
##  7   for  4257
##  8    by  2676
##  9    on  2329
## 10  from  1825
## # ... with 28,933 more rows

 not those we want. of, the, in and so on. These are called stop words. To remove them we can use the tidytext:stop_words data and dplyr::anti_join().

all_words %>% 
  anti_join(stop_words, by = "word") %>% 
  count(word, sort = TRUE) 

## # A tibble: 28,358 x 2
##         word    nn
##        <chr> <int>
##  1   science  1735
##  2      cell  1424
##  3   biology  1192
##  4     cells   985
##  5     human   953
##  6  research   878
##  7   protein   804
##  8       ago   758
##  9 structure   739
## 10       dna   726
## # ... with 28,348 more rows

Now we are getting very close what we need (or now we think we need). Here already in the first two lines you can see the problem. cell and cells are independent entries. If we want to remove every modifications from a word, that is called stemming, since we will get the stem of the word. In the cell, cells case of course cell. There are several methods and packages, like SnowballC, hunspell or tm. Here I am using SnowballC::wordStem().

library(SnowballC)

all_words %>% 
  anti_join(stop_words, by = "word") %>% 
  mutate(word = word %>% SnowballC::wordStem()) %>%
  count(word, sort = TRUE) -> word_count

word_count

## # A tibble: 20,363 x 2
##        word    nn
##       <chr> <int>
##  1     cell  2409
##  2   scienc  1794
##  3 structur  1285
##  4  biologi  1192
##  5 research  1065
##  6    human  1064
##  7  protein  1029
##  8    genom   952
##  9     gene   850
## 10    activ   822
## # ... with 20,353 more rows
…
It is already really interesting. We can see, in the past 19 years the word cell was the most popular, exactly 2409 times popped up in Nature article titles. Structure, cancer, biology, gene, genome, protein and so are mainly life science related terms. It looks like Nature is a bit biology-biased or just biologists produce much higher amount of data and publications.

The world cell can be in many context, lets find out in which context they appear the most (I bet stem cell and single cell RNA-seq are the most abundant, lets take your bet, too). We can apply unnest_tokens() with token = "ngrams", n = 2 arguments to pick up 2-word phrases (2-grams) and in similar way as before we can count them.

all_title %>%
  unnest_tokens(word, value, token="ngrams", n = 2) %>% 
  filter( stringr::str_detect(string = .$word, pattern = "[C|c]ell[s]*") == TRUE)  %>% 
  count(word, sort = TRUE) 

## # A tibble: 1,956 x 2
##             word    nn
##            <chr> <int>
##  1    stem cells   334
##  2     stem cell   314
##  3  cell biology   244
##  4        t cell   117
##  5       t cells    84
##  6    cell cycle    77
##  7      cells in    75
##  8    cell death    41
##  9     cells and    39
## 10 cell division    38
## # ... with 1,946 more rows

Indeed stem cell(s) was the most abundant, but cell rna was less usual (only 6 times), even then solar cells (12 times), probably because these terms just became popular and single cell sequencing is available from the last few years only. single cell was occuring 24 times (as single cell activity, single cell division and so on next to single cell rna-seq). Lets have a look on the articles with single cell in the title.

all_title %>%
  filter( stringr::str_detect(.$value, 
                              pattern = "[S|s]ingle([:graph:]|[:space:]){0,1}[C|c]ell")) %>%
  select(date, value) 

## # A tibble: 30 x 2
##          date
##        <date>
##  1 2003-08-07
##  2 2005-07-21
##  3 2006-06-15
##  4 2007-06-28
##  5 2007-04-26
##  6 2009-02-12
##  7 2012-11-08
##  8 2012-07-05
##  9 2013-10-03
## 10 2013-08-29
## # ... with 20 more rows, and 1 more variables: value <chr>
…
all_words %>% 
  mutate(year = lubridate::year(date)) %>%
  anti_join(stop_words, by = "word") %>% 
  filter(!word %in% bad_words,
         year != 2017) %>% 
  mutate(word = word %>% SnowballC::wordStem()) %>%
  group_by(year) %>%
  count(word, sort = TRUE) -> word_count_year

word_count_year 

## Source: local data frame [76,318 x 3]
## Groups: year [19]
## 
## # A tibble: 76,318 x 3
##     year  word    nn
##    <dbl> <chr> <int>
##  1  2009  cell   196
##  2  2008  cell   186
##  3  2006  cell   174
##  4  2005  cell   150
##  5  2013  cell   144
##  6  2014  cell   140
##  7  2007  cell   138
##  8  2015  cell   138
##  9  2004  cell   134
## 10  2001  cell   130
## # ... with 76,308 more rows
…
